Date,COG,MRO,Daily Ret COG,Daily Ret MRO,Hedge Ratio,MI(u|v),MI(v|u),Signal,Shares COG,Shares MRO,PnL COG,PnL MRO
2018-12-31,23.1489,17.3624,-0.02649384596027682,0.018297517166421695,0.27137846541461763,0.03234624685114431,0.9449051501185854,0,0.0,-0.0,,
2019-01-02,24.3711,17.8225,0.05145074087793633,0.026154755485007453,0.2772197287333905,0.9815239516045461,0.33004344185532947,0,0.0,-0.0,0.0,-0.0
2019-01-03,24.2157,17.7014,-0.006396820943334713,-0.006817971512592447,0.27729974966101545,0.43084623781966674,0.4468866673837544,0,0.0,-0.0,-0.0,0.0
2019-01-04,23.9568,18.6579,-0.010748974737893047,0.05262591639609493,0.27179547469403764,0.047499362056403094,0.995530830444776,1,417.0,-146.0,-0.0,-0.0
2019-01-07,24.9304,18.9121,0.03983573393122297,0.01353227996461337,0.27444853314661477,0.9796663641157843,0.26909778043605864,0,0.0,-0.0,405.99119999999897,-37.11319999999961
2019-01-08,25.2929,18.7426,0.014435781605223408,-0.009002921009395592,0.27355385194285126,0.90451854912956,0.18039126809128855,0,0.0,-0.0,0.0,0.0
2019-01-09,24.7025,19.457,-0.023619270850782748,0.03740789464087246,0.26679526456411157,0.021463288453046542,0.9898355839684175,1,405.0,-137.0,-0.0,-0.0
2019-01-10,24.9822,19.796,0.011259118188840844,0.017272994600400438,0.26588243057546007,0.6339808158706256,0.7345314520591953,0,0.0,-0.0,113.2784999999993,-46.44299999999981
2019-01-11,25.0443,19.5054,0.002482685452601441,-0.014788546779133327,0.26416634786065324,0.7298192256184529,0.20920026617328494,0,0.0,-0.0,0.0,0.0
2019-01-14,25.5415,19.1664,0.01965832355307162,-0.017532604315576794,0.26105328413220197,0.9576511120626466,0.08017164742695315,0,0.0,-0.0,0.0,0.0
2019-01-15,25.6865,19.1664,0.005660981776798746,0.0,0.257614114429155,0.6973608962338724,0.44014925741114236,0,0.0,-0.0,0.0,-0.0
2019-01-16,25.9247,18.8153,0.009230620148491742,-0.018488377351691287,0.2579872649701563,0.8691788226202843,0.12107977124394828,0,0.0,-0.0,0.0,0.0
2019-01-17,26.1629,19.118,0.009146194507223537,0.015959930998332705,0.2579613509275351,0.5969561804616913,0.7398407085766914,0,0.0,-0.0,0.0,-0.0
2019-01-18,26.5358,19.4933,0.014152387971377856,0.019440517144060365,0.25892566352560215,0.6758973168245423,0.7319656258567409,0,0.0,-0.0,0.0,-0.0
2019-01-22,26.1111,18.9969,-0.016134253409452626,-0.025795008825625132,0.25774240209952387,0.3193415453326716,0.21929968844724848,0,0.0,-0.0,-0.0,0.0
2019-01-23,25.9247,18.8395,-0.007164329069148767,-0.008320078442093592,0.25808205049359045,0.42332121919585,0.42349135329803766,0,0.0,-0.0,-0.0,0.0
2019-01-24,26.4648,19.1301,0.020619365923655764,0.01530728131211756,0.2597132652263881,0.8476798724782211,0.5437388532912917,0,0.0,-0.0,0.0,-0.0
2019-01-25,26.9114,19.2512,0.016734440524522665,0.006310385623189418,0.2587528040816645,0.8615303475323844,0.4136479469624095,0,0.0,-0.0,0.0,-0.0
2019-01-28,26.496,19.1664,-0.015556210452114527,-0.004414650458290037,0.25877548584329424,0.2066610375861702,0.5889485111137083,0,0.0,-0.0,-0.0,0.0
2019-01-29,26.6102,19.2633,0.004300822729943032,0.005042985261966226,0.2573907840662778,0.6067110994736319,0.5774228889259897,0,0.0,-0.0,0.0,-0.0
2019-01-30,26.3298,19.3964,-0.010593223351638148,0.006885750582389605,0.25596109377243986,0.2119108310416088,0.7774402349736693,0,0.0,-0.0,-0.0,-0.0
2019-01-31,25.9143,19.118,-0.015906437687667196,-0.014457182197714413,0.25746670042682834,0.2637164901212891,0.38566851795415047,0,0.0,-0.0,-0.0,0.0
2019-02-01,26.039,19.3722,0.004800474251731135,0.013208749025345412,0.25823100947302535,0.515787829333995,0.7454477232238125,0,0.0,-0.0,0.0,-0.0
2019-02-04,25.851999999999997,19.5538,-0.007207446744569079,0.009330592277930982,0.25057805448246573,0.2566573030779011,0.7945512068049004,0,0.0,-0.0,-0.0,-0.0
2019-02-05,25.717,19.2996,-0.005235715580792277,-0.013085270637382074,0.24265988772476751,0.5148875130365717,0.31102328781725364,0,0.0,-0.0,-0.0,0.0
2019-02-06,25.073,19.2633,-0.025360681870759016,-0.0018826390505695123,0.24071822991560765,0.08292511457064497,0.7007645240596921,0,0.0,-0.0,-0.0,0.0
2019-02-07,24.6368,18.4884,-0.017550309847504497,-0.041058222863303406,0.23112499125470834,0.34778983254677504,0.10704912577542722,0,0.0,-0.0,-0.0,0.0
2019-02-08,24.8757,18.3189,0.0096501632506385,-0.00921019461842354,0.22911648386037156,0.8427740294453148,0.2191479380413521,0,0.0,-0.0,0.0,0.0
2019-02-11,25.3535,18.4884,0.01902536421572476,0.00921019461842354,0.23174857348683892,0.8726724312237852,0.44028098294708706,0,0.0,-0.0,0.0,-0.0
2019-02-12,25.665,18.7063,0.012211408444310123,0.011716857125148916,0.23314023166368963,0.7283007513568046,0.6057167263347871,0,0.0,-0.0,0.0,-0.0
2019-02-13,25.5404,18.8274,-0.004866683823390616,0.006452890080892004,0.23276105424228904,0.3377815107405346,0.7225502082361237,0,0.0,-0.0,-0.0,-0.0
2019-02-14,25.6754,20.474,0.005271822861740549,0.08384253289794596,0.2264717205160872,0.09546999234876352,0.9983893337397242,0,0.0,-0.0,0.0,-0.0
2019-02-15,26.2051,20.6799,0.02042071326186834,0.010006425541015496,0.229671814163977,0.8845729064672204,0.4357771956071976,0,0.0,-0.0,0.0,-0.0
2019-02-19,26.1532,20.6799,-0.0019824943513628845,0.0,0.23033437159772432,0.48621073091613093,0.5471951642668563,0,0.0,-0.0,-0.0,-0.0
2019-02-20,25.9143,20.7406,-0.009176614067635036,0.002930917948962275,0.23041156798526108,0.272320271740248,0.6914527326935636,0,0.0,-0.0,-0.0,-0.0
2019-02-21,25.4885,20.2548,-0.016567569843505048,-0.023701329486811584,0.22783138585506477,0.3004230763225644,0.24710975099728696,0,0.0,-0.0,-0.0,0.0
2019-02-22,25.1977,20.5099,-0.011474649539219506,0.012515893901253072,0.22818099144983073,0.15932227033877883,0.8638968559508151,0,0.0,-0.0,-0.0,-0.0
2019-02-25,25.851999999999997,20.2427,0.02563524688988661,-0.013113461670130722,0.22357582508861512,0.9756258016618696,0.08483200686294731,0,0.0,-0.0,0.0,0.0
2019-02-26,26.0805,20.0606,0.008799941253168075,-0.009036542376188894,0.22467887125967267,0.8278781583861455,0.22986867518038825,0,0.0,-0.0,0.0,0.0
2019-02-27,25.717,20.3884,-0.014035656833960353,0.01620841931361028,0.22007312924748995,0.109854202759761,0.9097812643491013,0,0.0,-0.0,-0.0,-0.0
2019-02-28,25.5716,20.1577,-0.005669891146271588,-0.011379762276159777,0.22101055839270992,0.4896245860371496,0.3463403194094194,0,0.0,-0.0,-0.0,0.0
2019-03-01,26.2155,20.7406,0.024868478218803336,0.028506782594427627,0.22393572984783744,0.7811652371006119,0.722768443632394,0,0.0,-0.0,0.0,-0.0
2019-03-04,26.3194,20.9834,0.003955470952303752,0.011638516954344702,0.2229614822897215,0.5130848213096096,0.72598846288484,0,0.0,-0.0,0.0,-0.0
2019-03-05,26.7452,20.9713,0.016048708143837853,-0.0005768126257841288,0.2230949773752675,0.8911482152042745,0.2890772658837311,0,0.0,-0.0,0.0,0.0
2019-03-06,26.3921,20.4734,-0.013290295042450495,-0.024028353708536176,0.22405334515110806,0.37422300050987184,0.22102402193835727,0,0.0,-0.0,-0.0,0.0
2019-03-07,26.0909,20.4734,-0.011478128416945399,0.0,0.2251955080853685,0.24942023260466709,0.6500538228507723,0,0.0,-0.0,-0.0,-0.0
2019-03-08,25.6235,19.757,-0.018076695369260598,-0.03561862367631319,0.227379106079292,0.3190437142573865,0.14165145201306856,0,0.0,-0.0,-0.0,0.0
2019-03-11,25.8624,20.1213,0.009280277302089246,0.01827109653902781,0.225483756398311,0.5685930972738431,0.7785833475035737,0,0.0,-0.0,0.0,-0.0
2019-03-12,26.5064,20.522,0.02459603680546696,0.019718525969721235,0.2277882043835709,0.8643343209736168,0.5677882216602366,0,0.0,-0.0,0.0,-0.0
2019-03-13,26.9841,21.031999999999996,0.017861590384844916,0.02454760598756245,0.23038208942334992,0.692680801391626,0.7644002233053171,0,0.0,-0.0,0.0,-0.0
2019-03-14,27.0568,20.9591,0.002690556369595587,-0.003472167827938577,0.23035316625743138,0.65319867592349,0.4051729270355048,0,0.0,-0.0,0.0,0.0
2019-03-15,26.9322,20.9713,-0.004615763256205607,0.0005819167164764494,0.23059884500400868,0.4066350873036339,0.5931367312441014,0,0.0,-0.0,-0.0,-0.0
2019-03-18,26.953000000000003,21.116999999999997,0.0007720116482099471,0.006923566977986351,0.23099478948641122,0.4836883448895782,0.6689485969243372,0,0.0,-0.0,0.0,-0.0
2019-03-19,26.9634,20.7891,0.00038578243832976256,-0.015649592404513246,0.2285991642408762,0.6839854714886073,0.2166491469842335,0,0.0,-0.0,0.0,0.0
2019-03-20,27.4308,21.372,0.017186078819661166,0.027652843205934197,0.2332921933047797,0.6354571736319713,0.8183064174881912,0,0.0,-0.0,0.0,-0.0
2019-03-21,27.6177,21.4813,0.006790401851306083,0.005101135129061962,0.23449236362317563,0.6728669366689022,0.5409893114137272,0,0.0,-0.0,0.0,-0.0
2019-03-22,26.9634,20.2548,-0.02397648067096725,-0.05879098672384142,0.2361185063423485,0.2716885993392421,0.06168347016872718,0,0.0,-0.0,-0.0,0.0
2019-03-25,27.41,20.2913,0.016427519462490103,0.0018004202554426918,0.23570541954630864,0.8841833555482937,0.32762200424304866,0,0.0,-0.0,0.0,-0.0
2019-03-26,27.41,20.776999999999997,0.0,0.023654382906460825,0.23283905197400426,0.2754930550601567,0.9173881478691376,0,0.0,-0.0,0.0,-0.0
2019-03-27,27.3165,20.7163,-0.003416995092847319,-0.002925775645714168,0.23267315797327504,0.47631169612404983,0.49796668609093353,0,0.0,-0.0,-0.0,0.0
2019-03-28,27.3788,20.4248,0.0022780760666023525,-0.014170981240473779,0.23301576197859503,0.7215849559201274,0.2193408142150701,0,0.0,-0.0,0.0,0.0
2019-03-29,27.1088,20.2913,-0.009910592866744672,-0.0065576260202728776,0.23380211798065997,0.33820261360513465,0.49059571719210926,0,0.0,-0.0,-0.0,0.0
2019-04-01,26.8699,21.116999999999997,-0.008851697423857718,0.039886180537915816,0.22383103158837764,0.07905749772222803,0.987070681154731,0,0.0,-0.0,-0.0,-0.0
2019-04-02,26.901,20.8013,0.0011567596401729219,-0.01506291853987518,0.22184361065224434,0.6997062335050989,0.21752914166214604,0,0.0,-0.0,0.0,0.0
2019-04-03,26.4752,20.5584,-0.015955014882577334,-0.011745868207149623,0.22316182156438913,0.24637181204917433,0.4380066888482782,0,0.0,-0.0,-0.0,0.0
2019-04-04,26.8179,20.8134,0.012861129256215964,0.012327393501864847,0.22488227183014856,0.7357963288831728,0.6085516900248794,0,0.0,-0.0,0.0,-0.0
2019-04-05,27.1815,21.4934,0.013467019826526538,0.03214890121348146,0.22081529011775666,0.4878414070577511,0.9013921882531262,0,0.0,-0.0,0.0,-0.0
2019-04-08,27.8566,21.372,0.024533327300883645,-0.005664257166900555,0.22034774868267762,0.9648294794830807,0.1480360286915986,0,0.0,-0.0,0.0,0.0
2019-04-09,28.189,20.9591,0.011861908785561592,-0.01950873449588375,0.21447164819467535,0.9033003452877747,0.0999346635662153,0,0.0,-0.0,0.0,0.0
2019-04-10,28.1994,21.1899,0.00036887019734255233,0.010951733462257973,0.21565266082214687,0.4225981601667269,0.7548727681107129,0,0.0,-0.0,0.0,-0.0
2019-04-11,28.1163,20.8741,-0.0029512217841465294,-0.015015497026860558,0.21565947331350963,0.5919437029842736,0.25688235148398764,0,0.0,-0.0,-0.0,0.0
2019-04-12,28.3552,21.5663,0.008460955533019732,0.03262275511358359,0.21623775910702805,0.3683909151719273,0.9347334412552857,0,0.0,-0.0,0.0,-0.0
2019-04-15,28.4175,21.1049,0.0021947177078822655,-0.02162667013907882,0.2153112227801223,0.7553659635557097,0.13768061979212468,0,0.0,-0.0,0.0,0.0
2019-04-16,28.4902,21.2142,0.002555015913468406,0.0051655277656950105,0.21527317044952557,0.5561238135787506,0.6055439214220374,0,0.0,-0.0,0.0,-0.0
2019-04-17,28.0851,21.541999999999998,-0.014320981894591966,0.015333749153339848,0.21340782955474924,0.11072697729114452,0.9031242764609305,0,0.0,-0.0,-0.0,-0.0
2019-04-18,27.1399,21.3963,-0.034234216796048766,-0.006786508045477202,0.21334017924803741,0.04884008184813483,0.6434018638283588,0,0.0,-0.0,-0.0,0.0
2019-04-22,27.1815,22.8049,0.0015316250366290696,0.06375741526765966,0.20885942852004544,0.10559270550718221,0.9960758916135213,0,0.0,-0.0,0.0,-0.0
2019-04-23,27.2023,22.6835,0.000764933712400051,-0.005337637209813728,0.20896077421882875,0.6180457956801336,0.39082663808473733,0,0.0,-0.0,0.0,0.0
2019-04-24,27.1192,22.0399,-0.003059564438554485,-0.028783340871608054,0.20855145488413915,0.6601951453914121,0.1137182308717228,0,0.0,-0.0,-0.0,0.0
2019-04-25,27.0153,21.7727,-0.0038385919359620324,-0.012197555627127432,0.2093047384954183,0.5471156356662992,0.3119558432713137,0,0.0,-0.0,-0.0,0.0
2019-04-26,27.6904,21.1049,0.024682410550712852,-0.0311516504326681,0.20270109580624848,0.9812990541284794,0.026315940571895246,-1,-361.0,96.0,0.0,0.0
2019-04-29,26.9634,20.8256,-0.026605391874577222,-0.01332224184707087,0.20564894078554793,0.11195431076719581,0.48034513525330086,0,0.0,-0.0,262.4470000000001,-26.812799999999925
2019-04-30,26.8907,20.691999999999997,-0.0026998889281077965,-0.006435847021204033,0.20524480803530723,0.5307126763576454,0.4112931343653253,0,0.0,-0.0,-0.0,0.0
2019-05-01,26.3609,20.0727,-0.01989865023227244,-0.030386469233274038,0.20773563423342292,0.26535143806258193,0.19315168897919524,0,0.0,-0.0,-0.0,0.0
2019-05-02,26.0805,18.8462,-0.010693943038007081,-0.0630493808482111,0.20728721877126322,0.5602105123966392,0.03020845616733444,0,0.0,-0.0,-0.0,0.0
2019-05-03,26.3506,19.0405,0.010303136472794794,0.010256987462836875,0.22342293824994444,0.7007726445832833,0.6040623724895146,0,0.0,-0.0,0.0,-0.0
2019-05-06,26.4544,19.1498,0.003931450949607562,0.005723982185267484,0.22251199345508296,0.5881956861016048,0.5986442621475323,0,0.0,-0.0,0.0,-0.0
2019-05-07,26.4856,18.8341,0.0011786929963060189,-0.01662321508754694,0.22249588148225102,0.7089270204097142,0.19724701826567767,0,0.0,-0.0,0.0,0.0
2019-05-08,26.5687,18.8948,0.003132642140528219,0.003217695314295721,0.22138948641470715,0.5955973012227861,0.5519192463541895,0,0.0,-0.0,0.0,-0.0
2019-05-09,26.9426,18.5427,0.013974845876961961,-0.018810571332140924,0.2242849601199175,0.9221943196014977,0.09489444957951523,0,0.0,-0.0,0.0,0.0
2019-05-10,26.9634,18.5305,0.0007717137621887638,-0.0006581573988966305,0.2241403945814791,0.5720482159233644,0.49492275211078074,0,0.0,-0.0,0.0,0.0
2019-05-13,26.8387,18.2512,-0.004635515093130316,-0.015187191912102271,0.22392893146214052,0.5467151561148873,0.27047258282086856,0,0.0,-0.0,-0.0,0.0
2019-05-14,27.41,18.8341,0.02106303455562042,0.031438225328844105,0.22388219011040916,0.6708650703451938,0.8184466010461982,0,0.0,-0.0,0.0,-0.0
2019-05-15,27.4725,18.7975,0.0022775940242474313,-0.0019451743502956198,0.2238702396503803,0.6274158899083664,0.44456057914233765,0,0.0,-0.0,0.0,0.0
2019-05-16,27.3787,19.1387,-0.0034201655181909096,0.017988580862893677,0.22300974128233875,0.25665193699224703,0.8848838363078362,0,0.0,-0.0,-0.0,-0.0
2019-05-17,27.2745,18.8463,-0.0038131390753290972,-0.015395854977778178,0.22346948762424917,0.5708500991063031,0.25939553427642803,0,0.0,-0.0,-0.0,0.0
2019-05-20,27.5663,18.9315,0.010641812439382559,0.004510593229497317,0.22369130449316116,0.7696024246997019,0.4671779460556495,0,0.0,-0.0,0.0,-0.0
2019-05-21,28.5043,19.297,0.03346094090196372,0.019122442029560816,0.22712027194828255,0.9443211142336183,0.4233964366575269,0,0.0,-0.0,0.0,-0.0
2019-05-22,27.7226,18.7975,-0.027806988069755345,-0.02622576114417363,0.2282970935430927,0.1416873642481513,0.2792964172546511,0,0.0,-0.0,-0.0,0.0
2019-05-23,26.6909,17.7377,-0.037925281674536127,-0.058031564301293415,0.2366857274620659,0.11555129426081216,0.09076805824567338,0,0.0,-0.0,-0.0,0.0
2019-05-24,26.7847,17.5793,0.0035081456290484425,-0.00897024447944883,0.23591417234867973,0.7181810837171444,0.28726509247258525,0,0.0,-0.0,0.0,0.0
2019-05-28,26.7847,17.4575,0.0,-0.006952717751249615,0.2384714141450362,0.6112663084066912,0.3671531950424039,0,0.0,-0.0,0.0,0.0
2019-05-29,26.3365,17.1651,-0.01687501923788881,-0.016891103037036892,0.23969967478433096,0.2591145056761334,0.35017903717695775,0,0.0,-0.0,-0.0,0.0
2019-05-30,26.2323,16.5925,-0.003964333843144097,-0.033927466663073336,0.2336109178916103,0.6560467197120278,0.0883512081842167,0,0.0,-0.0,-0.0,0.0
2019-05-31,26.076,16.0199,-0.005976124828199314,-0.03511908661446572,0.23346694403987606,0.6092901116724809,0.09085767797679169,0,0.0,-0.0,-0.0,0.0
2019-06-03,26.3574,16.2392,0.010733719412946208,0.013596373012943808,0.23385386308988712,0.6697298924379539,0.6698836181388533,0,0.0,-0.0,0.0,-0.0
2019-06-04,26.5554,16.3854,0.007484046362309815,0.008962621988849673,0.2317883350707427,0.6451045746271484,0.6192735755075308,0,0.0,-0.0,0.0,-0.0
2019-06-05,26.3469,16.0687,-0.007882495829959257,-0.019517414027765412,0.2335074606382601,0.48614943766378976,0.23689234610030743,0,0.0,-0.0,-0.0,0.0
2019-06-06,26.5033,16.1418,0.005918632533468138,0.004538900389508882,0.23292793774886636,0.6564563579057979,0.541254189192244,0,0.0,-0.0,0.0,-0.0
2019-06-07,26.5137,16.2149,0.00039232699448854547,0.004518391824048784,0.23148163083949475,0.5022015511956038,0.6203617114611307,0,0.0,-0.0,0.0,-0.0
2019-06-10,25.2005,16.3854,-0.05079774494516309,0.010460121814207746,0.2278192749317834,0.006717370801773463,0.9150489325075402,0,0.0,-0.0,-0.0,-0.0
2019-06-11,25.0025,16.3367,-0.007888015721849051,-0.0029765837740876044,0.22867757496230337,0.3564676916616133,0.5490630293612476,0,0.0,-0.0,-0.0,0.0
2019-06-12,24.7211,15.8616,-0.011318689887191091,-0.029513016808967674,0.22954161593066982,0.44893276876122523,0.1539733899849293,0,0.0,-0.0,-0.0,0.0
2019-06-13,24.9087,16.1783,0.007560010054556532,0.019769744282935875,0.2294805909985471,0.5022496666411669,0.8214843147334342,0,0.0,-0.0,0.0,-0.0
2019-06-14,24.7732,15.8128,-0.005454716344234001,-0.02285109948536901,0.22899367239910987,0.5707615618642138,0.1785399091307944,0,0.0,-0.0,-0.0,0.0
2019-06-17,25.0129,16.2392,0.009629268094313304,0.02660833379663874,0.231794077668676,0.4652967950503066,0.8830387717526154,0,0.0,-0.0,0.0,-0.0
2019-06-18,24.8878,16.6534,-0.005013968224217624,0.025186327347395565,0.22951347832948352,0.17596938320381103,0.9442545996518837,0,0.0,-0.0,-0.0,-0.0
2019-06-19,25.0859,16.6047,0.007928211745603875,-0.002928611965649086,0.22897656357973703,0.7744028241573412,0.346077204838719,0,0.0,-0.0,0.0,0.0
2019-06-20,24.5856,17.1895,-0.020145029616186694,0.03461294447526342,0.22262743827643416,0.032311154857019,0.9859693170318978,1,407.0,-130.0,-0.0,-0.0
2019-06-21,24.4189,17.1164,-0.006803483068223315,-0.00426166406568429,0.22659899656580768,0.39643345467440155,0.5080356148157829,0,0.0,-0.0,-67.8468999999995,9.503000000000021
2019-06-24,24.2104,16.9702,-0.008575129711170248,-0.008578203547230157,0.25590381256629363,0.3883653642181371,0.4333053701297026,0,0.0,-0.0,-0.0,0.0
2019-06-25,23.929000000000002,16.9336,-0.011691180414606261,-0.002159050856692879,0.26235088255755556,0.2623416763722075,0.6051347176469146,0,0.0,-0.0,-0.0,0.0
2019-06-26,23.5851,17.5306,-0.014475955786902528,0.03464811156294889,0.2561116127215133,0.0549837349049102,0.9835689132001223,0,0.0,-0.0,-0.0,-0.0
2019-06-27,23.6164,17.2991,0.0013262292337214987,-0.013293448357676318,0.2575399868575096,0.6932668888866547,0.24091157338458802,0,0.0,-0.0,0.0,0.0
2019-06-28,23.929000000000002,17.3113,0.01314972655318103,0.0007049904367066873,0.26025885405623633,0.8450018354522836,0.34910595531792066,0,0.0,-0.0,0.0,-0.0
2019-07-01,23.9811,17.36,0.002174907609754584,0.0028092417664011826,0.2600843744700832,0.5733175680558387,0.5561592020589594,0,0.0,-0.0,0.0,-0.0
2019-07-02,23.9915,16.5072,0.0004335808425195431,-0.05037205986822979,0.25565453358404033,0.7897973560783393,0.029654174539018172,0,0.0,-0.0,0.0,0.0
2019-07-03,24.5231,16.6412,0.021915929533485645,0.008084898813514485,0.2593701270098894,0.9109712408827416,0.3759934262435828,0,0.0,-0.0,0.0,-0.0
2019-07-05,24.6377,16.7631,0.0046622596696992424,0.007298493973157072,0.2608655880820191,0.5891533308990675,0.6239798167908295,0,0.0,-0.0,0.0,-0.0
2019-07-08,24.8462,16.4707,0.008427033191896083,-0.01759699734634923,0.2595589162464389,0.855132939877537,0.13337288789405916,0,0.0,-0.0,0.0,0.0
2019-07-09,24.94,16.4951,0.003768116907356678,0.0014803223010360078,0.26074977226875995,0.6326299987407723,0.5019183857913342,0,0.0,-0.0,0.0,-0.0
2019-07-10,25.0442,16.9336,0.004169323544023218,0.026236446718491013,0.26031937216832596,0.33988662072946724,0.915871922003507,0,0.0,-0.0,0.0,-0.0
2019-07-11,24.8149,16.6291,-0.009197984585302521,-0.01814564114541284,0.26224902829526725,0.4425588504864182,0.2672161839981399,0,0.0,-0.0,-0.0,0.0
2019-07-12,25.0129,16.958,0.007947412575367796,0.01958552620340015,0.2634375497067038,0.5150345931908048,0.8146789826349421,0,0.0,-0.0,0.0,-0.0
2019-07-15,24.5022,16.422,-0.020628782348342423,-0.03211779959521399,0.26567162097781366,0.258832755581709,0.18099348065319887,0,0.0,-0.0,-0.0,0.0
2019-07-16,24.2313,16.227,-0.011117723551541392,-0.01194537772919757,0.2785550459002852,0.35125539014346346,0.3909102167347965,0,0.0,-0.0,-0.0,0.0
2019-07-17,23.335,16.1052,-0.03769080648431622,-0.0075343203477760134,0.2799531014346137,0.03861418706271013,0.6411998394708863,0,0.0,-0.0,-0.0,0.0
2019-07-18,23.3454,16.3001,0.0004455831643288555,0.01202904155359974,0.27889599336775134,0.4114698727807355,0.7734099218432106,0,0.0,-0.0,0.0,-0.0
2019-07-19,23.261999999999997,16.6412,-0.003578834649260898,0.020710305414265662,0.2764478017492023,0.2307780350616948,0.9104177348092409,0,0.0,-0.0,-0.0,-0.0
2019-07-22,23.1995,16.6534,-0.0026904012009625333,0.0007328516063278556,0.2763456536271623,0.4581551712779483,0.5732148105337663,0,0.0,-0.0,-0.0,-0.0
2019-07-23,23.2099,16.7631,0.00044818507345878444,0.006565642366829216,0.27625895264950795,0.47893189408718373,0.6652892170772666,0,0.0,-0.0,0.0,-0.0
2019-07-24,23.0431,17.0189,-0.007212536401394409,0.015144449058745124,0.2758900130131981,0.20854755933685948,0.8741156785844274,0,0.0,-0.0,-0.0,-0.0
2019-07-25,22.7096,16.7509,-0.014578632811772962,-0.015872503038508956,0.2741654604522996,0.2991834668611711,0.34947531939923043,0,0.0,-0.0,-0.0,0.0
2019-07-26,19.9686,16.7509,-0.12862670276367005,0.0,0.2730952590651196,0.0003272402888561116,0.848428487601825,0,0.0,-0.0,-0.0,-0.0
2019-07-29,19.9374,16.4463,-0.0015636749540020034,-0.018351460270858322,0.26421265764545426,0.6496169544783389,0.19913051622957292,0,0.0,-0.0,-0.0,0.0
2019-07-30,20.1458,17.2138,0.010398465083669262,0.045610859809665616,0.2644252446571005,0.29195812001632543,0.9732301508057037,0,0.0,-0.0,0.0,-0.0
2019-07-31,19.9686,17.1407,-0.008834790129667258,-0.0042556352339682135,0.26412229201540727,0.34456232683772264,0.5303882432571664,0,0.0,-0.0,-0.0,0.0
2019-08-01,19.5205,16.4829,-0.022695844401513288,-0.03913227260166696,0.2673617842891122,0.2466777338633034,0.13736103098220454,0,0.0,-0.0,-0.0,0.0
2019-08-02,19.0411,16.1783,-0.024865394607331393,-0.0186526417489028,0.27206700213143276,0.14835629375604117,0.3742795687167862,0,0.0,-0.0,-0.0,0.0
2019-08-05,18.1865,15.2281,-0.04592024020143004,-0.06052843277592368,0.2840866608927663,0.07434209183691003,0.09584026469648507,0,0.0,-0.0,-0.0,0.0
2019-08-06,18.0197,14.8139,-0.009213956729322792,-0.027576476152184615,0.2840959691931841,0.4941847269538123,0.15814520637363333,0,0.0,-0.0,-0.0,0.0
2019-08-07,18.2907,14.6799,0.014927130077435624,-0.009086718022976115,0.2828962349328529,0.9097267849515996,0.17559206557428328,0,0.0,-0.0,0.0,0.0
2019-08-08,18.5107,15.6666,0.011956209316004607,0.06505184653967921,0.2797401789628575,0.20618324985245326,0.9920184958881735,0,0.0,-0.0,0.0,-0.0
2019-08-09,18.1964,15.6788,-0.017125170946835855,0.0007784236676542378,0.2795204589467709,0.15177763577800324,0.7077700877361753,0,0.0,-0.0,-0.0,-0.0
2019-08-12,18.1755,15.5205,-0.0011492389619629506,-0.010147750650422616,0.27931453660300504,0.6059530848127513,0.31923111340919536,0,0.0,-0.0,-0.0,0.0
2019-08-13,17.7983,15.7763,-0.020971586238439865,0.016347083175676236,0.27605264423564124,0.05773406400423489,0.9258850243687299,0,0.0,-0.0,-0.0,-0.0
2019-08-14,16.9288,14.9844,-0.05008663358068555,-0.0514991539796914,0.2850018527124765,0.05239856652324161,0.13932867974660804,0,0.0,-0.0,-0.0,0.0
2019-08-15,17.0755,14.6433,0.008628374066570021,-0.02302676695871142,0.2785963429525486,0.8722208823333528,0.09250204790923985,0,0.0,-0.0,0.0,0.0
2019-08-16,17.2536,15.1672,0.01037612975063995,0.03515230853744011,0.2768341076766034,0.38354481024916715,0.9388989421258468,0,0.0,-0.0,0.0,-0.0
2019-08-19,17.5469,15.690999999999999,0.0168564787772425,0.03395209807123978,0.27898558004856816,0.5436490652966499,0.8888576386615513,0,0.0,-0.0,0.0,-0.0
2019-08-20,17.6098,15.4352,0.0035782691273262834,-0.01643668414277899,0.27733266192287775,0.7626348742470377,0.1796714197106586,0,0.0,-0.0,0.0,0.0
2019-08-21,17.6412,15.1906,0.001781510215580706,-0.015973799935725896,0.2752167885922961,0.7198177864278985,0.20015797598806734,0,0.0,-0.0,0.0,0.0
2019-08-22,17.6202,14.9949,-0.0011911042943713035,-0.012966672209320684,0.2769900559765855,0.6256969479708512,0.271290711646384,0,0.0,-0.0,-0.0,0.0
2019-08-23,17.6412,14.3711,0.0011911042943713035,-0.04249089776320014,0.2735475992400005,0.7913143293964745,0.04257167735184138,0,0.0,-0.0,0.0,0.0
2019-08-26,17.3374,14.2243,-0.017371057695735992,-0.010267475863160236,0.27417609417340505,0.21254572025238289,0.479307678004292,0,0.0,-0.0,-0.0,0.0
2019-08-27,17.3898,14.102,0.003017809657444026,-0.008635138365896466,0.27480474443251107,0.7039018183887576,0.29875588901569206,0,0.0,-0.0,0.0,0.0
2019-08-28,17.5888,14.6035,0.011378508404970233,0.03494459471514677,0.2754805373072208,0.4075360285259213,0.932882068817962,0,0.0,-0.0,0.0,-0.0
2019-08-29,18.0497,14.9215,0.025866728299690944,0.021541899903224415,0.2808005093630044,0.8651704773574832,0.5823309046436882,0,0.0,-0.0,0.0,-0.0
2019-08-30,17.9345,14.4812,-0.006402831996476621,-0.02995186946324413,0.28044881348026696,0.5787724759106401,0.12343477389840936,0,0.0,-0.0,-0.0,0.0
2019-09-03,17.8298,14.3956,-0.005855017383454619,-0.005928652117186406,0.2803093978133473,0.437516322371814,0.4600404513825485,0,0.0,-0.0,-0.0,0.0
2019-09-04,17.945,14.8114,0.006440309837348668,0.028474550199655724,0.27688528801203893,0.36737659168829456,0.9195645944496587,0,0.0,-0.0,0.0,-0.0
2019-09-05,18.2278,15.3373,0.015636376611083413,0.03489061548276373,0.27967131343809215,0.5038943335413993,0.9059424035219866,0,0.0,-0.0,0.0,-0.0
2019-09-06,18.385,15.2273,0.00858721354258174,-0.007197900507286192,0.2760650354005651,0.8145982580157213,0.2606009495082578,0,0.0,-0.0,0.0,0.0
2019-09-09,19.2754,15.7776,0.04729455675061178,0.035501343086004944,0.2847894772433598,0.9470865503259553,0.4995068280535821,0,0.0,-0.0,0.0,-0.0
2019-09-10,19.4745,15.692,0.010276245982433263,-0.00544018424862136,0.2846610362524726,0.8344248708056535,0.2711585665533106,0,0.0,-0.0,0.0,0.0
2019-09-11,19.9144,15.9122,0.022337170649280313,0.01393508225559037,0.2863213468222852,0.8808455191624517,0.48736603625879266,0,0.0,-0.0,0.0,-0.0
2019-09-12,19.5373,15.3863,-0.019117629164609795,-0.03360860751108419,0.2880200155452748,0.29157672070564133,0.1613263957177247,0,0.0,-0.0,-0.0,0.0
2019-09-13,19.7049,15.533,0.008541876809040616,0.009489289913957588,0.28846078260978925,0.6661385924937243,0.6147247925678012,0,0.0,-0.0,0.0,-0.0
2019-09-16,19.0135,17.3309,-0.03571808260207909,0.10952424243732084,0.24772086123333747,0.001802741271136468,0.9998860192457056,1,526.0,-143.0,-0.0,-0.0
2019-09-17,19.223,15.9856,0.010958225592810678,-0.08080271844647369,0.23459817789266443,0.9394949479597681,0.00460383556169088,0,0.0,-0.0,110.19699999999919,192.37789999999998
2019-09-18,19.2021,15.9366,-0.001087830717996674,-0.003069966260730972,0.2346582409146996,0.5441197686936945,0.4647750384598891,0,0.0,-0.0,-0.0,0.0
2019-09-19,19.0345,15.9489,-0.00876652596541394,0.0007715105994954286,0.2328405947473903,0.30077666966857786,0.6418247361250046,0,0.0,-0.0,-0.0,-0.0
2019-09-20,18.9088,16.1201,-0.006625699918094252,0.010677079197804584,0.2335391725407598,0.25659931620112664,0.8117238407779342,0,0.0,-0.0,-0.0,-0.0
2019-09-23,18.9821,16.0223,0.003869007673977798,-0.006085438661407316,0.232486376928649,0.7057317709489088,0.3360140832536543,0,0.0,-0.0,0.0,0.0
2019-09-24,18.7935,14.946,-0.009985364471616354,-0.0695377963636803,0.23076488769186415,0.5879185229986635,0.022544761632039244,0,0.0,-0.0,-0.0,0.0
2019-09-25,18.4164,15.0683,-0.02026949338466766,0.008149493866000501,0.22953296804866752,0.08608850309571407,0.843726741543005,0,0.0,-0.0,-0.0,-0.0
2019-09-26,17.9869,14.6035,-0.023597856827334063,-0.03133197336210358,0.23198371776577328,0.2090672679247964,0.20243429449586983,0,0.0,-0.0,-0.0,0.0
2019-09-27,18.364,14.9215,0.020748511227397515,0.021541899903224415,0.23242440604956102,0.7878612450056179,0.6670664356811961,0,0.0,-0.0,0.0,-0.0
2019-09-30,18.4059,15.0071,0.002279039003955763,0.005720296533437974,0.23594292133914313,0.5414745381070128,0.6220957266655007,0,0.0,-0.0,0.0,-0.0
2019-10-01,18.4164,14.42,0.0005703065959807851,-0.03990729059185494,0.23612335904648574,0.7742713438557707,0.05055495394249343,0,0.0,-0.0,0.0,0.0
2019-10-02,17.945,13.8207,-0.025930047387341837,-0.042448663569908174,0.2410927747430472,0.20758457512001272,0.1289351231593638,0,0.0,-0.0,-0.0,0.0
2019-10-03,18.5107,14.261,0.031037418666778116,0.031361070467735175,0.24461300726363402,0.8438414823080992,0.6720083681996932,0,0.0,-0.0,0.0,-0.0
2019-10-04,18.8354,14.1387,0.01738913471081993,-0.008612820277943634,0.2454714005161699,0.930088116429253,0.16298811147099024,0,0.0,-0.0,0.0,0.0
2019-10-07,19.0345,13.9553,0.010515044110144256,-0.013056354048386787,0.24518553952185612,0.8704268472721818,0.16380693663597662,0,0.0,-0.0,0.0,0.0
2019-10-08,18.5316,13.5639,-0.026775739052494085,-0.02844751264858658,0.25028423970128383,0.15930929161221527,0.24768669042694222,0,0.0,-0.0,-0.0,0.0
2019-10-09,18.165,13.6862,-0.01998071736165352,0.008976174117440117,0.24889631674543822,0.0854036638723743,0.8533100796057331,0,0.0,-0.0,-0.0,-0.0
2019-10-10,18.3431,13.943,0.009756816315125594,0.018589564315731,0.2510620871856911,0.5767765291409418,0.7778370173730914,0,0.0,-0.0,0.0,-0.0
2019-10-11,18.3954,14.3589,0.002847151371439871,0.02939236880182694,0.24459536523777442,0.28202134383856436,0.9412131540836856,0,0.0,-0.0,0.0,-0.0
2019-10-14,18.4269,14.4078,0.0017109201589269318,0.003399767585475555,0.24432447499149385,0.5532225160288592,0.5765312388844797,0,0.0,-0.0,0.0,-0.0
2019-10-15,18.8459,14.4812,0.022483830086064582,0.005081529851789224,0.2433852359489105,0.9286144883955195,0.31341525164039374,0,0.0,-0.0,0.0,-0.0
2019-10-16,18.6992,14.2121,-0.007814641407966505,-0.018757542010603867,0.24396863182787007,0.4832641926511186,0.24667754729438304,0,0.0,-0.0,-0.0,0.0
2019-10-17,18.7516,14.1265,0.002798339912315928,-0.006041248356858819,0.2438528345678155,0.6784098804702998,0.35035445520607295,0,0.0,-0.0,0.0,0.0
2019-10-18,18.804000000000002,13.8207,0.0027905310528129057,-0.021884997797618322,0.24260331522754172,0.7690204226143801,0.131740704831466,0,0.0,-0.0,0.0,0.0
2019-10-21,19.1183,14.102,0.016576378374561607,0.020149163009953952,0.24342030061950365,0.7217962241435801,0.7080129178342927,0,0.0,-0.0,0.0,-0.0
2019-10-22,19.4011,14.3466,0.014683773956321478,0.017196349037625236,0.24320191904089322,0.7174230796277444,0.6811937539981351,0,0.0,-0.0,0.0,-0.0
2019-10-23,19.4011,14.6891,0.0,0.02359274180700277,0.24088973331271787,0.2760472819999137,0.9169331113250906,0,0.0,-0.0,0.0,-0.0
2019-10-24,19.3383,14.6035,-0.0032421800550026525,-0.005844496129481236,0.2227389716022616,0.5098149902065409,0.430651789060803,0,0.0,-0.0,-0.0,0.0
2019-10-25,19.7049,14.6524,0.018779750342226897,0.003342918559233521,0.22251907327057563,0.9029651246445021,0.3268791131106448,0,0.0,-0.0,0.0,-0.0
2019-10-28,18.9716,14.6035,-0.03792421168921889,-0.003342918559233521,0.2242555135782392,0.03188397165067914,0.7189758674733905,0,0.0,-0.0,-0.0,0.0
2019-10-29,19.8621,14.6891,0.045870269117423756,0.005844496129481236,0.2274972545682852,0.9929193546585644,0.14755513117906507,0,0.0,-0.0,0.0,-0.0
2019-10-30,19.3697,14.1387,-0.02510340377706699,-0.03819000366479042,0.22232573707192668,0.20805411973201987,0.15273683396284127,0,0.0,-0.0,-0.0,0.0
2019-10-31,19.5268,14.102,0.008077891546069527,-0.002599087179837589,0.2227742955185312,0.7750996751944672,0.350698477631699,0,0.0,-0.0,0.0,0.0
2019-11-01,19.3068,14.738,-0.011330515514346828,0.04411256104795891,0.21857655865816408,0.0559694869988614,0.9916744361423697,0,0.0,-0.0,-0.0,-0.0
2019-11-04,19.6421,15.3129,0.017217856391019914,0.038266418067932406,0.22218110385469259,0.4982721618438712,0.9175088850384816,0,0.0,-0.0,0.0,-0.0
2019-11-05,19.0764,15.4596,-0.029223252881183104,0.009534559190602199,0.21242196213855408,0.03677000957142853,0.8825213517589057,0,0.0,-0.0,-0.0,-0.0
2019-11-06,19.3608,14.897,0.014798434336048327,-0.037070319205886104,0.20781366462707596,0.946989110121954,0.028627411162268898,0,0.0,-0.0,0.0,0.0
2019-11-07,19.3397,15.3618,-0.0010904252963506167,0.030724057956151185,0.20750037620269293,0.20196157693935293,0.958575565081047,0,0.0,-0.0,-0.0,-0.0
2019-11-08,19.3502,15.3251,0.000542777327301458,-0.002391901267140284,0.2070577365756183,0.5835890242893008,0.45832709766467894,0,0.0,-0.0,0.0,0.0
2019-11-11,18.6866,14.8726,-0.034896065883656124,-0.029971413210018838,0.2124023180839776,0.09288952900597251,0.2648241414114495,0,0.0,-0.0,-0.0,0.0
2019-11-12,18.7498,14.6891,0.0033763962368316136,-0.012414871734971467,0.21188241403464533,0.7370149912551246,0.23370631869722658,0,0.0,-0.0,0.0,0.0
2019-11-13,18.8552,14.5179,0.005605652227177238,-0.011723351303652318,0.22485699602417367,0.7815143666854141,0.22207881944512575,0,0.0,-0.0,0.0,0.0
2019-11-14,18.8025,14.5423,-0.002798898201620048,0.0016792730768484532,0.2268783728363359,0.4446803771378812,0.5963599514944293,0,0.0,-0.0,-0.0,-0.0
2019-11-15,19.1396,14.7992,0.017769647446419512,0.017511481340369617,0.23054523323830514,0.7779205448716274,0.6372143471907288,0,0.0,-0.0,0.0,-0.0
2019-11-18,18.0862,14.4078,-0.056610270630574,-0.026803398654855926,0.23740769370169315,0.02166310938625762,0.36871933934447704,0,0.0,-0.0,-0.0,0.0
2019-11-19,17.8018,14.0776,-0.015849640753367478,-0.023184844944771577,0.2385672413994469,0.3127530042090808,0.24886802810113384,0,0.0,-0.0,-0.0,0.0
2019-11-20,17.2646,14.3601,-0.030641413466816037,0.019868645728716938,0.23362819577902072,0.021109021065496465,0.9557709089569101,1,579.0,-163.0,-0.0,-0.0
2019-11-21,16.9064,14.6058,-0.020965913848277395,0.01696518271716041,0.22879757268326625,0.05635217642092539,0.9300200322117197,0,0.0,-0.0,-207.39780000000005,-40.04910000000019
2019-11-22,17.2646,14.9866,0.020965913848277395,0.025737758407562872,0.2326667790929096,0.7422777583860733,0.7377624963667893,0,0.0,-0.0,0.0,-0.0
2019-11-25,17.5806,14.876,0.018137859053375838,-0.007407292446031555,0.23871159133262976,0.9330131756473468,0.1711970961029722,0,0.0,-0.0,0.0,0.0
2019-11-26,16.8643,14.5321,-0.04159705979292205,-0.02338918036228188,0.2421424792040322,0.05008512924282212,0.37514499605990864,0,0.0,-0.0,-0.0,0.0
2019-11-27,17.1171,14.5935,0.014879002267160768,0.004216228400913291,0.2394845104428038,0.848662277922918,0.3967998007095361,0,0.0,-0.0,0.0,-0.0
2019-11-29,16.7906,14.311,-0.019258757833868767,-0.019547751772716282,0.24110534976379744,0.2302326604343849,0.3240556859355437,0,0.0,-0.0,-0.0,0.0
2019-12-02,16.8538,14.6918,0.0037569446527236927,0.02626104268549545,0.2398986423198109,0.3304724799992831,0.9181904391851814,0,0.0,-0.0,0.0,-0.0
2019-12-03,16.5483,14.4461,-0.018292773146674435,-0.01686503307809728,0.24726451286116657,0.23335170862611246,0.3612386065033756,0,0.0,-0.0,-0.0,0.0
2019-12-04,16.9591,14.9497,0.024521185404091206,0.034266750809583524,0.2555804485526331,0.705116261745451,0.8093507697645551,0,0.0,-0.0,0.0,-0.0
2019-12-05,16.8116,14.79,-0.008735438587291533,-0.01073995602301192,0.2589554321969665,0.40175083382379695,0.39090127174132216,0,0.0,-0.0,-0.0,0.0
2019-12-06,16.938,15.2937,0.007490494168729711,0.033489702171433766,0.2592909558536166,0.3390532590213013,0.9434177324339161,0,0.0,-0.0,0.0,-0.0
2019-12-09,16.9697,15.4657,0.001869782334719794,0.01118368971675121,0.26385818390220467,0.4608201461262013,0.7424635064192486,0,0.0,-0.0,0.0,-0.0
2019-12-10,17.0539,15.4657,0.004949515741553778,0.0,0.26393278370630985,0.6792967790021346,0.45050349128678036,0,0.0,-0.0,0.0,-0.0
2019-12-11,16.8538,15.4902,-0.011802765915128521,0.0015828972903726424,0.2662305829107065,0.23068412308887015,0.685947290155634,0,0.0,-0.0,-0.0,-0.0
2019-12-12,17.0223,16.0062,0.009948098489880763,0.032768581279779774,0.2673289379501346,0.39964320763483446,0.9280599558484531,0,0.0,-0.0,0.0,-0.0
2019-12-13,16.9591,15.6254,-0.0037196862324639923,-0.024078351886255067,0.2617675525792096,0.6230334971729184,0.15454863463784954,0,0.0,-0.0,-0.0,0.0
2019-12-16,17.7913,16.129,0.047905010851045926,0.03172109864025474,0.26656276329119866,0.9618788972206225,0.43915007012891266,0,0.0,-0.0,0.0,-0.0
2019-12-17,17.5806,16.4238,-0.011913552401556338,0.018112608405933095,0.2696853607793526,0.12386765826874398,0.9189157359828607,0,0.0,-0.0,-0.0,-0.0
2019-12-18,17.7491,16.4853,0.009538789043110896,0.003737572379274745,0.2685097110050861,0.7530847498026657,0.46669871111369665,0,0.0,-0.0,0.0,-0.0
2019-12-19,17.9177,16.1904,0.009454240684592108,-0.018050600726895016,0.2668862822303429,0.8710326817056868,0.12334211773563225,0,0.0,-0.0,0.0,0.0
2019-12-20,18.339000000000002,16.2273,0.02324088861953655,0.0022765350988214195,0.26868208156884155,0.9428770997560317,0.2588655714251658,0,0.0,-0.0,0.0,-0.0
2019-12-23,18.5286,16.6572,0.010285544571243754,0.026147546294747137,0.2650562810856767,0.4875429284272556,0.8729753800904635,0,0.0,-0.0,0.0,-0.0
2019-12-24,18.3706,16.7309,-0.00856392364346803,0.00441475374168343,0.23993060683124243,0.27223869655581623,0.7161013395716342,0,0.0,-0.0,-0.0,-0.0
2019-12-26,18.3074,16.8169,-0.0034462109465547286,0.005127024030524119,0.23943267162601486,0.3885456053353685,0.6805433626710807,0,0.0,-0.0,-0.0,-0.0
2019-12-27,18.1389,16.559,-0.00924654631835864,-0.015454572498787122,0.2369447342677856,0.4233735143683875,0.3098462100173264,0,0.0,-0.0,-0.0,0.0
2019-12-30,18.0441,16.4853,-0.005240041838344034,-0.004460685940093967,0.24065565994435992,0.4405694515933823,0.48542779458744206,0,0.0,-0.0,-0.0,0.0
2019-12-31,18.339000000000002,16.6818,0.016211178175481677,0.011849230057150884,0.23376199296502612,0.8081394013490343,0.5424631054044688,0,0.0,-0.0,0.0,-0.0
